An introduction to
…
.footnote[
https://tibble.tidyverse.org/
]

---
### tibbles

```r
tbl <- tibble(x = 1:50, y = exp(x), w = y > 1, char = "AaRUG")
tbl
```

```
# A tibble: 50 x 4
       x        y w     char 
   <int>    <dbl> <lgl> <chr>
 1     1     2.72 TRUE  AaRUG
 2     2     7.39 TRUE  AaRUG
 3     3    20.1  TRUE  AaRUG
 4     4    54.6  TRUE  AaRUG
 5     5   148.   TRUE  AaRUG
 6     6   403.   TRUE  AaRUG
 7     7  1097.   TRUE  AaRUG
 8     8  2981.   TRUE  AaRUG
 9     9  8103.   TRUE  AaRUG
10    10 22026.   TRUE  AaRUG
# ... with 40 more rows
```
…
```
# A tibble: 1 x 4
      x            y w     char 
  <int>        <dbl> <lgl> <chr>
1    25 72004899337. TRUE  AaRUG
```

```r
print(tbl[, "y"], n = 3)
```

```
# A tibble: 50 x 1
      y
  <dbl>
1  2.72
2  7.39
3 20.1 
# ... with 47 more rows
```
…
* `summarise()`, `summarize()`

and 

* `group_by()`, `ungroup()`

---
### `mtcars`

```r
mtcars %>% print(n = 5, width = 60)
```

```
# A tibble: 32 x 12
    mpg   cyl  disp    hp  drat    wt  qsec    vs    am
  <dbl> <int> <dbl> <int> <dbl> <dbl> <dbl> <int> <int>
1  21       6   160   110  3.9   2.62  16.5     0     1
2  21       6   160   110  3.9   2.88  17.0     0     1
3  22.8     4   108    93  3.85  2.32  18.6     1     1
4  21.4     6   258   110  3.08  3.22  19.4     1     0
5  18.7     8   360   175  3.15  3.44  17.0     0     0
# ... with 27 more rows, and 3 more variables: gear <int>,
#   carb <int>, car <chr>
```
…
